[gd_resource type="Resource" load_steps=2 format=2]

[ext_resource path="res://game/stat/GameStatValue.gd" type="Script" id=1]

[resource]
script = ExtResource( 1 )
id = "aegis_regen"
stat_name = "AIGES REGEN"
long_name = "Aegis Regeneration Percentage"
description = "The amount of aegist your regain per turn while not being hit."
stat_type = 0
tier = 0
tags = PoolStringArray(  )
auto_calcs = PoolStringArray( "15" )
limit_id = "aegis"
min_value = 0.0
max_value = 999999.0
is_perc = false
max_decimals = 0
