[gd_resource type="Resource" load_steps=2 format=2]

[ext_resource path="res://game/stat/GameStatValue.gd" type="Script" id=1]

[resource]
script = ExtResource( 1 )
id = "level"
stat_name = "Level"
long_name = "Character Level"
description = "You character level."
stat_type = 0
tier = 0
tags = PoolStringArray(  )
auto_calcs = PoolStringArray(  )
limit_id = ""
min_value = 0.0
max_value = 100.0
is_perc = false
max_decimals = 0
