[gd_resource type="Resource" load_steps=2 format=2]

[ext_resource path="res://game/item_class/GameItemClass.gd" type="Script" id=1]

[resource]
script = ExtResource( 1 )
id = "ring_emerald"
ic_name = "Emerald Ring"
mod_item_group = "ring"
tags = PoolStringArray( "ring" )
