[gd_resource type="Resource" load_steps=4 format=2]

[ext_resource path="res://game/mod/GameMod.gd" type="Script" id=1]
[ext_resource path="res://game/mod/GameModTier.gd" type="Script" id=2]

[sub_resource type="Resource" id=1]
script = ExtResource( 2 )
level = 0
tier = 0
affix_flavor = ""
rarity = 100
sell_value = 1
value_from = Vector2( 0, 0 )
value_to = Vector2( 0, 0 )

[resource]
script = ExtResource( 1 )
id = "base"
stat_id = ""
mod_type = 0
calc = 0
scope = 1
mod_group = ""
item_group = ""
required_tags = PoolStringArray(  )
any_of_tags = PoolStringArray(  )
calc_idx = 0
calc_function = ""
tiers = [ SubResource( 1 ) ]
