[gd_resource type="DynamicFont" load_steps=3 format=2]

[sub_resource type="DynamicFontData" id=1]
font_path = "res://asset/font/droid-sans/DroidSansFallback.ttf"

[sub_resource type="DynamicFontData" id=2]
font_path = "res://asset/font/droid-sans/DroidSans.ttf"

[resource]
use_filter = true
font_data = SubResource( 2 )
fallback/0 = SubResource( 1 )
