[gd_resource type="Resource" load_steps=2 format=2]

[ext_resource path="res://game/stat/GameStatDamage.gd" type="Script" id=1]

[resource]
script = ExtResource( 1 )
id = "dmg_spl"
stat_name = "SPL DMG"
long_name = "Spell Damage"
description = "Base Spell Damage"
stat_type = 4
tier = 1
tags = PoolStringArray(  )
auto_calcs = PoolStringArray( "int*0.1" )
limit_id = ""
value_from = Vector2( 0, 0 )
value_to = Vector2( 0, 0 )
