[gd_scene load_steps=4 format=2]

[ext_resource path="res://local/font_header_02.tres" type="DynamicFont" id=1]
[ext_resource path="res://local/font_header_01.tres" type="DynamicFont" id=2]
[ext_resource path="res://ui/widget/DropDownWidget.gd" type="Script" id=3]

[node name="DropDownWidget" type="Panel"]
margin_left = 1.41418
margin_top = 0.414215
margin_right = 1001.41
margin_bottom = 50.4142
rect_min_size = Vector2( 1000, 50 )
focus_mode = 1
script = ExtResource( 3 )
__meta__ = {
"_edit_use_anchors_": false
}

[node name="highlight" type="ColorRect" parent="."]
visible = false
show_behind_parent = true
margin_left = -4.0
margin_top = -4.0
margin_right = 1004.0
margin_bottom = 54.0
rect_min_size = Vector2( 1008, 58 )
color = Color( 1, 0.937255, 0, 1 )
__meta__ = {
"_edit_use_anchors_": false
}

[node name="lbl_name" type="Label" parent="."]
margin_left = 7.33484
margin_top = 5.0
margin_right = 507.335
margin_bottom = 43.0
rect_min_size = Vector2( 500, 0 )
custom_fonts/font = ExtResource( 2 )
text = "<LABEL>"
__meta__ = {
"_edit_use_anchors_": false
}

[node name="btn_options" type="OptionButton" parent="."]
margin_left = 550.0
margin_top = 5.0
margin_right = 970.0
margin_bottom = 40.0
custom_fonts/font = ExtResource( 1 )
text = "<OPTIONS>"
__meta__ = {
"_edit_use_anchors_": false
}

[connection signal="focus_entered" from="." to="." method="_on_DropDownWidget_focus_entered"]
[connection signal="focus_exited" from="." to="." method="_on_DropDownWidget_focus_exited"]
[connection signal="focus_entered" from="btn_options" to="." method="_on_btn_options_focus_entered"]
[connection signal="focus_exited" from="btn_options" to="." method="_on_btn_options_focus_exited"]
[connection signal="item_selected" from="btn_options" to="." method="_on_btn_options_item_selected"]
