[gd_scene load_steps=2 format=2]

[ext_resource path="res://ui/widget/ItemWidget.gd" type="Script" id=1]

[node name="ItemWidget" type="TextureRect"]
margin_right = 67.0
margin_bottom = 67.0
rect_min_size = Vector2( 67, 67 )
expand = true
script = ExtResource( 1 )
__meta__ = {
"_edit_use_anchors_": false
}

[node name="bg_col" type="ColorRect" parent="."]
visible = false
show_behind_parent = true
anchor_right = 1.0
anchor_bottom = 1.0
mouse_filter = 2

[connection signal="mouse_entered" from="." to="." method="_on_ItemWidget_mouse_entered"]
[connection signal="mouse_exited" from="." to="." method="_on_ItemWidget_mouse_exited"]
