[gd_scene load_steps=3 format=2]

[ext_resource path="res://ui/widget/SaveSlotWidget.gd" type="Script" id=1]
[ext_resource path="res://local/font_header_01.tres" type="DynamicFont" id=2]

[node name="SaveSlotWidget" type="Panel"]
margin_right = 1000.0
margin_bottom = 100.0
rect_min_size = Vector2( 1000, 100 )
focus_mode = 1
script = ExtResource( 1 )
__meta__ = {
"_edit_group_": true,
"_edit_use_anchors_": false
}

[node name="highlight" type="ColorRect" parent="."]
visible = false
show_behind_parent = true
margin_left = -4.0
margin_top = -4.0
margin_right = 36.0
margin_bottom = 36.0
rect_min_size = Vector2( 1008, 108 )
color = Color( 1, 0.937255, 0, 1 )
__meta__ = {
"_edit_use_anchors_": false
}

[node name="lbl_name" type="Label" parent="."]
margin_left = 28.0
margin_top = 31.0
margin_right = 528.0
margin_bottom = 69.0
rect_min_size = Vector2( 500, 0 )
custom_fonts/font = ExtResource( 2 )
text = "<EMPTY>"
__meta__ = {
"_edit_use_anchors_": false
}

[node name="lbl_date" type="Label" parent="."]
margin_left = 580.0
margin_top = 31.0
margin_right = 980.0
margin_bottom = 69.0
rect_min_size = Vector2( 400, 0 )
custom_fonts/font = ExtResource( 2 )
text = "YYYY-MM-DD HH:MM:SS"
__meta__ = {
"_edit_use_anchors_": false
}

[connection signal="focus_entered" from="." to="." method="_on_SaveSlotWidget_focus_entered"]
[connection signal="focus_exited" from="." to="." method="_on_SaveSlotWidget_focus_exited"]
