[gd_resource type="DynamicFont" load_steps=2 format=2]

[ext_resource path="res://autoload/console/font/roboto_mono_regular.ttf" type="DynamicFontData" id=1]

[resource]
size = 20
font_data = ExtResource( 1 )
