[gd_resource type="Resource" load_steps=2 format=2]

[ext_resource path="res://game/item_class/GameItemClass.gd" type="Script" id=1]

[resource]
script = ExtResource( 1 )
id = "two_handed_axe"
ic_name = "Two Handed Axe"
mod_item_group = "2h_wpn"
tags = PoolStringArray( "two_handed", "weapon", "axe", "attack_damage" )
